Vignette_v2
…
#Get the receiver metadata
rcvr_data <- get_rcvr_data()

#Join the receiver metadata to the filtered detections
for(i in 1:length(final_list)){
  out <- join_rcvr_data(final_list[[i]], rcvr_data)
  final_list[[i]]
}

print(final_list[[1]])
#> # A tibble: 959 × 47
#> # Groups:   Tag_Hex [1]
#>    ReceiverSN Make  DateTime_Local      Tag_Decimal Tag_Hex  Tilt  Volt  Temp
#>    <chr>      <chr> <dttm>                    <int> <chr>   <dbl> <dbl> <dbl>
#>  1 17111      ATS   2021-06-20 00:00:02       50760 C648       41  4.15  26.0
#>  2 17111      ATS   2021-06-20 00:00:05       50760 C648       41  4.16  26.0
#>  3 17111      ATS   2021-06-20 00:00:08       50760 C648       41  4.16  26.0
#>  4 17111      ATS   2021-06-20 00:00:11       50760 C648       41  4.16  26.0
#>  5 17111      ATS   2021-06-20 00:00:14       50760 C648       41  4.16  26.0
#>  6 17111      ATS   2021-06-20 00:00:17       50760 C648       41  4.15  26.0
#>  7 17111      ATS   2021-06-20 00:00:20       50760 C648       41  4.15  26.0
#>  8 17111      ATS   2021-06-20 00:00:23       50760 C648       41  4.15  26.0
#>  9 17111      ATS   2021-06-20 00:00:26       50760 C648       41  4.15  26.0
#> 10 17111      ATS   2021-06-20 00:00:28       50760 C648       41  4.15  26.0
#> # ℹ 949 more rows
#> # ℹ 39 more variables: SigStr <dbl>, Freq <dbl>, Thres <dbl>, CheckMBP <lgl>,
#> #   TagInFile <lgl>, fish_id <chr>, study_id <chr>, fish_type <chr>,
#> #   fish_origin <chr>, fish_date_tagged <chr>, fish_release_date <dttm>,
#> #   tag_id_decimal <int>, tag_weight <chr>, tag_model <chr>,
#> #   tag_pulse_rate_interval_nominal <chr>, tag_warranty_life <chr>,
#> #   fish_length_type <chr>, fish_length <chr>, fish_weight <chr>, …
print(final_list[[2]])
#> # A tibble: 865 × 45
#> # Groups:   Tag_Hex [4]
#>    ReceiverSN Make  DateTime_Local      Tag_Decimal Tag_Hex  Volt SigStr  Freq
#>    <chr>      <chr> <dttm>                    <int> <chr>   <dbl>  <dbl> <dbl>
#>  1 156007     Tekno 2021-07-05 08:39:29       28477 6F3D     3.71   25.5  417.
#>  2 156007     Tekno 2021-07-05 08:39:32       28477 6F3D     3.71   27.5  417.
#>  3 156007     Tekno 2021-07-05 08:39:35       28477 6F3D     3.71   15.4  417.
#>  4 156007     Tekno 2021-07-05 08:39:38       28477 6F3D     3.71   26.9  417.
#>  5 156007     Tekno 2021-07-05 08:39:41       28477 6F3D     3.71   23.3  417.
#>  6 156007     Tekno 2021-07-05 08:39:43       28477 6F3D     3.71   26.3  417.
#>  7 156007     Tekno 2021-07-05 08:39:49       28477 6F3D     3.71   20.5  417.
#>  8 156007     Tekno 2021-07-05 08:39:52       28477 6F3D     3.71   22.6  417.
#>  9 156007     Tekno 2021-07-05 08:39:55       28477 6F3D     3.71   20.7  417.
#> 10 156007     Tekno 2021-07-05 08:40:01       28477 6F3D     3.71   25.9  417.
#> # ℹ 855 more rows
#> # ℹ 37 more variables: Thres <int>, CheckMBP <lgl>, TagInFile <lgl>,
#> #   fish_id <chr>, study_id <chr>, fish_type <chr>, fish_origin <chr>,
#> #   fish_date_tagged <chr>, fish_release_date <dttm>, tag_id_decimal <int>,
#> #   tag_weight <chr>, tag_model <chr>, tag_pulse_rate_interval_nominal <chr>,
#> #   tag_warranty_life <chr>, fish_length_type <chr>, fish_length <chr>,
#> #   fish_weight <chr>, release_location <chr>, release_latitude <dbl>, …
